"","year","site.type","r2","monitorvar","ricardovar","ratio","n"
"1",2001,"Rural Background",0.98119204450319,9.1524385790848,21.0325711448461,2.29802920425053,5
"2",2001,"Suburban Background",0.813941298038658,2.12435870083334,1.37700980958751,0.648200235227385,3
"4",2001,"Urban Background",0.227294930843208,3.23349255084762,18.182861542973,5.62328852070699,43
"5",2001,"Urban Industrial",0.0418965459973457,2.23931064803333,38.1340130817743,17.0293537054653,4
"6",2001,"Urban Traffic",0.360709761680642,6.11432785945,32.2722924611624,5.2781422918439,9
"7",2002,"Rural Background",0.958810440388715,5.9942525704108,27.9208773141481,4.65794141741255,5
"8",2002,"Suburban Background",0.675714443024872,4.73887750203333,1.40590794669166,0.296675308886634,3
"10",2002,"Urban Background",0.096552433249815,3.90929479153182,15.9708696625819,4.08535823319782,45
"11",2002,"Urban Industrial",0.416685723014146,4.44240103729167,45.8497679744423,10.320943019227,4
"12",2002,"Urban Traffic",0.441984343867157,5.88674158811944,42.7276444267059,7.25828436446716,9
"13",2003,"Rural Background",0.00739905284436454,39.4213736050931,61.8677588411788,1.5693963244646,25
"14",2003,"Suburban Background",0.413011846119422,29.092826426728,219.600074544359,7.54825506890625,6
"16",2003,"Urban Background",0.530904357236565,28.632249308789,153.487215272418,5.3606411992684,96
"17",2003,"Urban Industrial",0.625860280770542,21.6559203092982,250.464723834194,11.5656467264822,8
"18",2003,"Urban Traffic",0.528158756864604,33.3598898894631,282.073942174703,8.45548181092162,11
"19",2004,"Rural Background",0.663649723716627,25.4775387859701,41.9322018663545,1.64584979022564,24
"20",2004,"Suburban Background",0.974424170822804,99.152484510905,161.397775280374,1.62777338436359,6
"22",2004,"Urban Background",0.93064632083651,107.031038713157,121.241894578113,1.13277322200937,98
"23",2004,"Urban Industrial",0.880747217667606,131.655478051556,169.115625391488,1.28453162674525,11
"24",2004,"Urban Traffic",0.902102753254557,98.4138078212357,222.814949656366,2.26406186884974,11
"25",2005,"Rural Background",0.370760665366662,38.6770921587728,43.3796051312993,1.12158393276367,26
"26",2005,"Suburban Background",0.882902971908812,79.2795591310065,156.856138368612,1.97851930671579,7
"28",2005,"Urban Background",0.903229927327181,79.8415782320417,126.488806070818,1.58424731664505,94
"29",2005,"Urban Industrial",0.857902628337463,73.4793711412853,163.43656423051,2.22425099306111,10
"30",2005,"Urban Traffic",0.903633397081987,92.7084091951021,233.37111108514,2.51725936310715,11
"31",2006,"Rural Background",0.00388898843937708,42.9078628156135,46.6274460524959,1.08668768362728,29
"32",2006,"Suburban Background",0.33159445089182,9.63489903538096,171.362170595404,17.7855699334402,7
"34",2006,"Urban Background",0.602459464027183,25.516315239058,143.725561517278,5.63269265843198,94
"35",2006,"Urban Industrial",0.761444648108118,23.1231160845285,181.201885367613,7.83639560970997,10
"36",2006,"Urban Traffic",0.832586457140246,39.9451367577903,264.443169788159,6.62015932982346,14
"37",2007,"Rural Background",0.70915115270843,24.2143957509806,46.5420512761994,1.92208187868222,29
"38",2007,"Suburban Background",0.936810774570354,86.0792805894181,130.801742649401,1.51954967274065,8
"40",2007,"Urban Background",0.952162455014547,85.7186217688041,116.296861621727,1.35672808570577,92
"41",2007,"Urban Industrial",0.893512842516772,72.1091746289543,153.095812493805,2.12311142488561,12
"42",2007,"Urban Traffic",0.904829202209337,88.1324104016514,202.841231928207,2.30155093913562,16
"43",2008,"Rural Background",0.263674838825575,15.7484369157591,32.575040580107,2.06846182604382,30
"44",2008,"Suburban Background",0.959335844787414,31.9345441640287,81.3423144255929,2.54715752345755,6
"46",2008,"Urban Background",0.752583413044555,41.0397979922731,81.9981785176762,1.99801613382977,108
"47",2008,"Urban Industrial",0.834041135543053,28.4921407434164,75.1205025789317,2.6365341676297,17
"48",2008,"Urban Traffic",0.739219142698397,29.3242000372079,74.0071136836593,2.52375558718586,21
"49",2009,"Rural Background",0.803384348964974,25.8120518887415,29.9243274079964,1.15931610307387,29
"50",2009,"Suburban Background",0.936496502071553,40.870710295238,66.8905506609187,1.63663783129094,6
"52",2009,"Urban Background",0.899447662433726,51.596106554641,73.1718553423522,1.41816621889604,114
"53",2009,"Urban Industrial",0.832004851947755,42.6893853622979,60.432855720904,1.41564127026004,17
"54",2009,"Urban Traffic",0.809027340376776,26.8639471072309,53.3642926919038,1.98646507450649,34
"55",2010,"Rural Background",0.847455463766878,20.6287837677322,17.7605795807145,0.860961062013542,28
"56",2010,"Suburban Background",0.993449959859816,47.5950426983002,67.7768556293815,1.42403182741135,6
"58",2010,"Urban Background",0.901925788317049,55.2917805788396,75.3775187831504,1.36326806613997,107
"59",2010,"Urban Industrial",0.904272554478195,42.8290820276894,59.8442059360045,1.39727967779731,17
"60",2010,"Urban Traffic",0.791186031050374,26.3639420525218,54.0292285796775,2.04936076979844,37
"61",2011,"Rural Background",0.81609312474423,22.844645434157,30.197553976932,1.32186573278047,29
"62",2011,"Suburban Background",0.986094043353638,35.779392360769,65.1472714488676,1.82080429963645,6
"64",2011,"Urban Background",0.921681350675161,53.540120040363,75.9314072436179,1.41821511020847,108
"65",2011,"Urban Industrial",0.820087899527176,42.6677836631099,72.3606100427081,1.69590739969159,17
"66",2011,"Urban Traffic",0.784474212043632,31.9819764158396,58.1911850867934,1.81949934332305,38
"67",2012,"Rural Background",0.878457419639914,20.7110042250646,31.3279649141983,1.51262413805531,28
"68",2012,"Suburban Background",0.966252346871196,34.3634146954186,44.4591522346366,1.29379319921207,6
"70",2012,"Urban Background",0.922455081023179,39.852237781501,56.2982421126608,1.41267455095819,111
"71",2012,"Urban Industrial",0.877487871926179,29.1327875146888,55.5560914916494,1.90699539011287,17
"72",2012,"Urban Traffic",0.75862948717145,19.1419699035601,44.0551273311365,2.30149391902152,42
"73",2013,"Rural Background",0.826425527038179,12.4699988301339,25.5959816791507,2.05260497838201,7
"74",2013,"Suburban Background",1,0.0100777404500001,0.0840277003539318,8.33795043351519,2
"76",2013,"Urban Background",0.540902239223663,10.4895070373168,14.5514621888902,1.38723985189417,69
"77",2013,"Urban Industrial",0.656620997195453,9.83392712760658,18.9211529414184,1.92406885834057,13
"78",2013,"Urban Traffic",0.780362561805715,12.4654234876551,24.7240320474279,1.98340891281495,39
"79",2014,"Rural Background",0.835703235845302,12.1869503150017,16.0094823333286,1.31365779949242,7
"80",2014,"Suburban Background",1,0.0291562952000002,8.72000263433626,299.077868930898,2
"82",2014,"Urban Background",0.620404715407514,10.9494022795234,11.1413170478011,1.01752741961418,66
"83",2014,"Urban Industrial",0.661332707071864,8.70636984998559,20.9633964846645,2.40782287519054,13
"84",2014,"Urban Traffic",0.809731027970977,13.8846869370925,23.4675852751523,1.69017748700256,40
"85",2015,"Rural Background",0.886112122800624,10.8055209064282,18.1043481515181,1.67547203955228,7
"86",2015,"Suburban Background",1,0.04978590125,0.000211044093478558,0.00423903330420393,2
"88",2015,"Urban Background",0.689869618190471,12.0934850132375,11.5040650830342,0.95126136679724,64
"89",2015,"Urban Industrial",0.567373045654103,8.06435120175927,27.5874612075198,3.42091515080612,13
"90",2015,"Urban Traffic",0.749286865706192,12.3984411304104,18.4309525701875,1.48655402532668,43
